<svg width="16" height="16" viewBox="0 0 16 16" fill="none" xmlns="http://www.w3.org/2000/svg">
<path fill-rule="evenodd" clip-rule="evenodd" d="M8.00006 16C3.58883 16 0 12.4112 0 8.00003C0 3.58877 3.58883 0 8.00006 0C12.4112 0 16 3.58877 16 8.00003C16 12.4112 12.4112 16 8.00006 16ZM14.7468 9.09513C14.5131 9.02133 12.6318 8.46022 10.4905 8.803C11.3843 11.259 11.748 13.2593 11.818 13.675C13.351 12.6384 14.4423 10.9964 14.7468 9.09513ZM10.6692 14.3006C10.5676 13.7011 10.1709 11.6117 9.2115 9.11872C9.19648 9.12386 9.18146 9.12873 9.16644 9.13393C5.31223 10.477 3.9287 13.1498 3.8057 13.4012C4.96432 14.3047 6.42038 14.8437 8.00006 14.8437C8.94662 14.8437 9.8488 14.6501 10.6692 14.3006ZM2.92345 12.5793C3.07822 12.3144 4.9536 9.20924 8.47778 8.07014C8.56683 8.04134 8.65662 8.01429 8.74707 7.98885C8.57549 7.60061 8.38867 7.21198 8.19302 6.82917C4.78057 7.85047 1.46924 7.80776 1.1703 7.80166C1.16817 7.87099 1.16678 7.94054 1.16678 8.01043C1.16678 9.76548 1.8321 11.3679 2.92345 12.5793ZM1.31117 6.6109C1.61675 6.61493 4.43199 6.62717 7.62836 5.77835C6.49615 3.76567 5.27504 2.07351 5.09492 1.82645C3.18319 2.72816 1.75422 4.49048 1.31117 6.6109ZM6.39872 1.36715C6.5876 1.62003 7.8287 3.31012 8.94841 5.36742C11.3782 4.45671 12.4069 3.07413 12.5298 2.89907C11.323 1.82846 9.73624 1.17717 8.00006 1.17717C7.44869 1.17717 6.91256 1.24331 6.39872 1.36715ZM13.2894 3.68924C13.1453 3.88409 12.0003 5.35199 9.47376 6.38352C9.63278 6.70902 9.7852 7.04006 9.92714 7.37328C9.97739 7.49142 10.0264 7.60894 10.0743 7.72596C12.348 7.44004 14.6071 7.89822 14.8324 7.94591C14.8174 6.33303 14.2411 4.85205 13.2894 3.68924Z" fill="white" fill-opacity="0.6"/>
</svg>
